mips.vcd
$date
  Tue May 15 17:55:20 2018
$end
$version
  GHDL v0
$end
$timescale
  1 fs
$end
$var reg 1 ! clock $end
$var reg 1 " reset $end
$scope module a $end
$var reg 1 # clk $end
$var reg 1 $ reset $end
$var reg 32 % if_instr[31:0] $end
$var reg 32 & if_pc[31:0] $end
$var reg 32 ' if_pc_next[31:0] $end
$var reg 32 ( if_pc4[31:0] $end
$var reg 32 ) id_instr[31:0] $end
$var reg 32 * id_pc4[31:0] $end
$var reg 6 + id_op[5:0] $end
$var reg 6 , id_funct[5:0] $end
$var reg 5 - id_rs[4:0] $end
$var reg 5 . id_rt[4:0] $end
$var reg 5 / id_rd[4:0] $end
$var reg 16 0 id_immed[15:0] $end
$var reg 32 1 id_extend[31:0] $end
$var reg 32 2 id_a[31:0] $end
$var reg 32 3 id_b[31:0] $end
$var reg 1 4 id_regwrite $end
$var reg 1 5 id_branch $end
$var reg 1 6 id_regdst $end
$var reg 1 7 id_memtoreg $end
$var reg 1 8 id_memread $end
$var reg 1 9 id_memwrite $end
$var reg 1 : id_alusrc $end
$var reg 2 ; id_aluop[1:0] $end
$var reg 32 < ex_pc4[31:0] $end
$var reg 32 = ex_extend[31:0] $end
$var reg 32 > ex_a[31:0] $end
$var reg 32 ? ex_b[31:0] $end
$var reg 32 @ ex_offset[31:0] $end
$var reg 32 A ex_btgt[31:0] $end
$var reg 32 B ex_alub[31:0] $end
$var reg 32 C ex_aluout[31:0] $end
$var reg 5 D ex_rt[4:0] $end
$var reg 5 E ex_rd[4:0] $end
$var reg 5 F ex_regrd[4:0] $end
$var reg 6 G ex_funct[5:0] $end
$var reg 1 H ex_regwrite $end
$var reg 1 I ex_branch $end
$var reg 1 J ex_regdst $end
$var reg 1 K ex_memtoreg $end
$var reg 1 L ex_memread $end
$var reg 1 M ex_memwrite $end
$var reg 1 N ex_alusrc $end
$var reg 1 O ex_zero $end
$var reg 2 P ex_aluop[1:0] $end
$var reg 3 Q ex_operation[2:0] $end
$var reg 1 R mem_pcsrc $end
$var reg 1 S mem_regwrite $end
$var reg 1 T mem_branch $end
$var reg 1 U mem_memtoreg $end
$var reg 1 V mem_memread $end
$var reg 1 W mem_memwrite $end
$var reg 1 X mem_zero $end
$var reg 32 Y mem_btgt[31:0] $end
$var reg 32 Z mem_aluout[31:0] $end
$var reg 32 [ mem_b[31:0] $end
$var reg 32 \ mem_memout[31:0] $end
$var reg 5 ] mem_regrd[4:0] $end
$var reg 1 ^ wb_regwrite $end
$var reg 1 _ wb_memtoreg $end
$var reg 32 ` wb_memout[31:0] $end
$var reg 32 a wb_aluout[31:0] $end
$var reg 32 b wb_wd[31:0] $end
$var reg 5 c wb_regrd[4:0] $end
$scope module pc $end
$var reg 1 d ck $end
$var reg 1 e rst $end
$var reg 32 f d[31:0] $end
$var reg 32 g q[31:0] $end
$upscope $end
$scope module pc4 $end
$var reg 32 h a[31:0] $end
$var reg 32 i b[31:0] $end
$var reg 32 j result[31:0] $end
$upscope $end
$scope module mx2 $end
$var reg 1 k sel $end
$var reg 32 l a[31:0] $end
$var reg 32 m b[31:0] $end
$var reg 32 n f[31:0] $end
$upscope $end
$scope module rom_inst $end
$var reg 32 o address[31:0] $end
$var reg 32 p data_out[31:0] $end
$var reg 6 q mem_offset[5:0] $end
$var reg 1 r address_select $end
$upscope $end
$scope module reg_file $end
$var reg 1 s ck $end
$var reg 1 t rst $end
$var reg 1 u wreg $end
$var reg 5 v adrs[4:0] $end
$var reg 5 w adrt[4:0] $end
$var reg 5 x adrd[4:0] $end
$var reg 32 y ra[31:0] $end
$var reg 32 z rb[31:0] $end
$var reg 32 { rw[31:0] $end
$comment reg is not handled $end
$var reg 32 | wen[31:0] $end
$var reg 1 } icl $end
$scope module g1(0) $end
$scope module rx $end
$var reg 1 !" ck $end
$var reg 1 "" rst $end
$var reg 1 #" ce $end
$var reg 32 $" d[31:0] $end
$var reg 32 %" q[31:0] $end
$upscope $end
$upscope $end
$scope module g1(1) $end
$scope module rx $end
$var reg 1 &" ck $end
$var reg 1 '" rst $end
$var reg 1 (" ce $end
$var reg 32 )" d[31:0] $end
$var reg 32 *" q[31:0] $end
$upscope $end
$upscope $end
$scope module g1(2) $end
$scope module rx $end
$var reg 1 +" ck $end
$var reg 1 ," rst $end
$var reg 1 -" ce $end
$var reg 32 ." d[31:0] $end
$var reg 32 /" q[31:0] $end
$upscope $end
$upscope $end
$scope module g1(3) $end
$scope module rx $end
$var reg 1 0" ck $end
$var reg 1 1" rst $end
$var reg 1 2" ce $end
$var reg 32 3" d[31:0] $end
$var reg 32 4" q[31:0] $end
$upscope $end
$upscope $end
$scope module g1(4) $end
$scope module rx $end
$var reg 1 5" ck $end
$var reg 1 6" rst $end
$var reg 1 7" ce $end
$var reg 32 8" d[31:0] $end
$var reg 32 9" q[31:0] $end
$upscope $end
$upscope $end
$scope module g1(5) $end
$scope module rx $end
$var reg 1 :" ck $end
$var reg 1 ;" rst $end
$var reg 1 <" ce $end
$var reg 32 =" d[31:0] $end
$var reg 32 >" q[31:0] $end
$upscope $end
$upscope $end
$scope module g1(6) $end
$scope module rx $end
$var reg 1 ?" ck $end
$var reg 1 @" rst $end
$var reg 1 A" ce $end
$var reg 32 B" d[31:0] $end
$var reg 32 C" q[31:0] $end
$upscope $end
$upscope $end
$scope module g1(7) $end
$scope module rx $end
$var reg 1 D" ck $end
$var reg 1 E" rst $end
$var reg 1 F" ce $end
$var reg 32 G" d[31:0] $end
$var reg 32 H" q[31:0] $end
$upscope $end
$upscope $end
$scope module g1(8) $end
$scope module rx $end
$var reg 1 I" ck $end
$var reg 1 J" rst $end
$var reg 1 K" ce $end
$var reg 32 L" d[31:0] $end
$var reg 32 M" q[31:0] $end
$upscope $end
$upscope $end
$scope module g1(9) $end
$scope module rx $end
$var reg 1 N" ck $end
$var reg 1 O" rst $end
$var reg 1 P" ce $end
$var reg 32 Q" d[31:0] $end
$var reg 32 R" q[31:0] $end
$upscope $end
$upscope $end
$scope module g1(10) $end
$scope module rx $end
$var reg 1 S" ck $end
$var reg 1 T" rst $end
$var reg 1 U" ce $end
$var reg 32 V" d[31:0] $end
$var reg 32 W" q[31:0] $end
$upscope $end
$upscope $end
$scope module g1(11) $end
$scope module rx $end
$var reg 1 X" ck $end
$var reg 1 Y" rst $end
$var reg 1 Z" ce $end
$var reg 32 [" d[31:0] $end
$var reg 32 \" q[31:0] $end
$upscope $end
$upscope $end
$scope module g1(12) $end
$scope module rx $end
$var reg 1 ]" ck $end
$var reg 1 ^" rst $end
$var reg 1 _" ce $end
$var reg 32 `" d[31:0] $end
$var reg 32 a" q[31:0] $end
$upscope $end
$upscope $end
$scope module g1(13) $end
$scope module rx $end
$var reg 1 b" ck $end
$var reg 1 c" rst $end
$var reg 1 d" ce $end
$var reg 32 e" d[31:0] $end
$var reg 32 f" q[31:0] $end
$upscope $end
$upscope $end
$scope module g1(14) $end
$scope module rx $end
$var reg 1 g" ck $end
$var reg 1 h" rst $end
$var reg 1 i" ce $end
$var reg 32 j" d[31:0] $end
$var reg 32 k" q[31:0] $end
$upscope $end
$upscope $end
$scope module g1(15) $end
$scope module rx $end
$var reg 1 l" ck $end
$var reg 1 m" rst $end
$var reg 1 n" ce $end
$var reg 32 o" d[31:0] $end
$var reg 32 p" q[31:0] $end
$upscope $end
$upscope $end
$scope module g1(16) $end
$scope module rx $end
$var reg 1 q" ck $end
$var reg 1 r" rst $end
$var reg 1 s" ce $end
$var reg 32 t" d[31:0] $end
$var reg 32 u" q[31:0] $end
$upscope $end
$upscope $end
$scope module g1(17) $end
$scope module rx $end
$var reg 1 v" ck $end
$var reg 1 w" rst $end
$var reg 1 x" ce $end
$var reg 32 y" d[31:0] $end
$var reg 32 z" q[31:0] $end
$upscope $end
$upscope $end
$scope module g1(18) $end
$scope module rx $end
$var reg 1 {" ck $end
$var reg 1 |" rst $end
$var reg 1 }" ce $end
$var reg 32 !# d[31:0] $end
$var reg 32 "# q[31:0] $end
$upscope $end
$upscope $end
$scope module g1(19) $end
$scope module rx $end
$var reg 1 ## ck $end
$var reg 1 $# rst $end
$var reg 1 %# ce $end
$var reg 32 &# d[31:0] $end
$var reg 32 '# q[31:0] $end
$upscope $end
$upscope $end
$scope module g1(20) $end
$scope module rx $end
$var reg 1 (# ck $end
$var reg 1 )# rst $end
$var reg 1 *# ce $end
$var reg 32 +# d[31:0] $end
$var reg 32 ,# q[31:0] $end
$upscope $end
$upscope $end
$scope module g1(21) $end
$scope module rx $end
$var reg 1 -# ck $end
$var reg 1 .# rst $end
$var reg 1 /# ce $end
$var reg 32 0# d[31:0] $end
$var reg 32 1# q[31:0] $end
$upscope $end
$upscope $end
$scope module g1(22) $end
$scope module rx $end
$var reg 1 2# ck $end
$var reg 1 3# rst $end
$var reg 1 4# ce $end
$var reg 32 5# d[31:0] $end
$var reg 32 6# q[31:0] $end
$upscope $end
$upscope $end
$scope module g1(23) $end
$scope module rx $end
$var reg 1 7# ck $end
$var reg 1 8# rst $end
$var reg 1 9# ce $end
$var reg 32 :# d[31:0] $end
$var reg 32 ;# q[31:0] $end
$upscope $end
$upscope $end
$scope module g1(24) $end
$scope module rx $end
$var reg 1 <# ck $end
$var reg 1 =# rst $end
$var reg 1 ># ce $end
$var reg 32 ?# d[31:0] $end
$var reg 32 @# q[31:0] $end
$upscope $end
$upscope $end
$scope module g1(25) $end
$scope module rx $end
$var reg 1 A# ck $end
$var reg 1 B# rst $end
$var reg 1 C# ce $end
$var reg 32 D# d[31:0] $end
$var reg 32 E# q[31:0] $end
$upscope $end
$upscope $end
$scope module g1(26) $end
$scope module rx $end
$var reg 1 F# ck $end
$var reg 1 G# rst $end
$var reg 1 H# ce $end
$var reg 32 I# d[31:0] $end
$var reg 32 J# q[31:0] $end
$upscope $end
$upscope $end
$scope module g1(27) $end
$scope module rx $end
$var reg 1 K# ck $end
$var reg 1 L# rst $end
$var reg 1 M# ce $end
$var reg 32 N# d[31:0] $end
$var reg 32 O# q[31:0] $end
$upscope $end
$upscope $end
$scope module g1(28) $end
$scope module rx $end
$var reg 1 P# ck $end
$var reg 1 Q# rst $end
$var reg 1 R# ce $end
$var reg 32 S# d[31:0] $end
$var reg 32 T# q[31:0] $end
$upscope $end
$upscope $end
$scope module g1(29) $end
$scope module rx $end
$var reg 1 U# ck $end
$var reg 1 V# rst $end
$var reg 1 W# ce $end
$var reg 32 X# d[31:0] $end
$var reg 32 Y# q[31:0] $end
$upscope $end
$upscope $end
$scope module g1(30) $end
$scope module rx $end
$var reg 1 Z# ck $end
$var reg 1 [# rst $end
$var reg 1 \# ce $end
$var reg 32 ]# d[31:0] $end
$var reg 32 ^# q[31:0] $end
$upscope $end
$upscope $end
$scope module g1(31) $end
$scope module rx $end
$var reg 1 _# ck $end
$var reg 1 `# rst $end
$var reg 1 a# ce $end
$var reg 32 b# d[31:0] $end
$var reg 32 c# q[31:0] $end
$upscope $end
$upscope $end
$upscope $end
$scope module ctrl $end
$var reg 6 d# opcode[5:0] $end
$var reg 1 e# regdst $end
$var reg 1 f# alusrc $end
$var reg 1 g# memtoreg $end
$var reg 1 h# regwrite $end
$var reg 1 i# memread $end
$var reg 1 j# memwrite $end
$var reg 1 k# branch $end
$var reg 2 l# aluop[1:0] $end
$upscope $end
$scope module sign_ext $end
$var reg 32 m# a[31:0] $end
$var integer 32 n# num $end
$var reg 32 o# f[31:0] $end
$var reg 32 p# temp[31:0] $end
$upscope $end
$scope module branch_add $end
$var reg 32 q# a[31:0] $end
$var reg 32 r# b[31:0] $end
$var reg 32 s# result[31:0] $end
$upscope $end
$scope module alu_mux_a $end
$var reg 1 t# sel $end
$var reg 32 u# a[31:0] $end
$var reg 32 v# b[31:0] $end
$var reg 32 w# f[31:0] $end
$upscope $end
$scope module alu_h $end
$var reg 3 x# ctl[2:0] $end
$var reg 32 y# a[31:0] $end
$var reg 32 z# b[31:0] $end
$var reg 32 {# result[31:0] $end
$var reg 1 |# zero $end
$var reg 32 }# intreg[31:0] $end
$upscope $end
$scope module dest_mux2 $end
$var reg 1 !$ sel $end
$var reg 5 "$ a[4:0] $end
$var reg 5 #$ b[4:0] $end
$var reg 5 $$ f[4:0] $end
$upscope $end
$scope module alu_c $end
$var reg 2 %$ aluop[1:0] $end
$var reg 6 &$ funct[5:0] $end
$var reg 3 '$ aluoperation[2:0] $end
$upscope $end
$scope module mem_access $end
$var reg 1 ($ clock $end
$var reg 1 )$ mem_read $end
$var reg 1 *$ mem_write $end
$var reg 32 +$ address[31:0] $end
$var reg 32 ,$ data_in[31:0] $end
$var reg 32 -$ data_out[31:0] $end
$comment tmp_ram is not handled $end
$var reg 30 .$ address_select[29:0] $end
$upscope $end
$scope module mux_dest $end
$var reg 1 /$ sel $end
$var reg 32 0$ a[31:0] $end
$var reg 32 1$ b[31:0] $end
$var reg 32 2$ f[31:0] $end
$upscope $end
$upscope $end
$enddefinitions $end
#0
0!
1"
0#
1$
b10010100100000100000000000001000 %
b00000000000000000000000000000000 &
bUUUUUUUUUUUUUUUUUUUUUUUUUUUUUUUU '
b00000000000000000000000000000100 (
bUUUUUUUUUUUUUUUUUUUUUUUUUUUUUUUU )
bUUUUUUUUUUUUUUUUUUUUUUUUUUUUUUUU *
bUUUUUU +
bUUUUUU ,
bUUUUU -
bUUUUU .
bUUUUU /
bUUUUUUUUUUUUUUUU 0
b0000000000000000UUUUUUUUUUUUUUUU 1
b00000000000000000000000000000000 2
b00000000000000000000000000000000 3
04
05
06
07
08
09
0:
b00 ;
bUUUUUUUUUUUUUUUUUUUUUUUUUUUUUUUU <
bUUUUUUUUUUUUUUUUUUUUUUUUUUUUUUUU =
bUUUUUUUUUUUUUUUUUUUUUUUUUUUUUUUU >
bUUUUUUUUUUUUUUUUUUUUUUUUUUUUUUUU ?
bUUUUUUUUUUUUUUUUUUUUUUUUUUUUUU00 @
bXXXXXXXXXXXXXXXXXXXXXXXXXXXXXXXX A
bUUUUUUUUUUUUUUUUUUUUUUUUUUUUUUUU B
bXXXXXXXXXXXXXXXXXXXXXXXXXXXXXXXX C
bUUUUU D
bUUUUU E
bUUUUU F
bUUUUUU G
UH
UI
UJ
UK
UL
UM
UN
0O
bUU P
bXXX Q
UR
US
UT
UU
UV
UW
UX
bUUUUUUUUUUUUUUUUUUUUUUUUUUUUUUUU Y
bUUUUUUUUUUUUUUUUUUUUUUUUUUUUUUUU Z
bUUUUUUUUUUUUUUUUUUUUUUUUUUUUUUUU [
bZZZZZZZZZZZZZZZZZZZZZZZZZZZZZZZZ \
bUUUUU ]
U^
U_
bUUUUUUUUUUUUUUUUUUUUUUUUUUUUUUUU `
bUUUUUUUUUUUUUUUUUUUUUUUUUUUUUUUU a
bUUUUUUUUUUUUUUUUUUUUUUUUUUUUUUUU b
bUUUUU c
0d
1e
bUUUUUUUUUUUUUUUUUUUUUUUUUUUUUUUU f
b00000000000000000000000000000000 g
b00000000000000000000000000000000 h
b00000000000000000000000000000100 i
b00000000000000000000000000000100 j
Uk
b00000000000000000000000000000100 l
bUUUUUUUUUUUUUUUUUUUUUUUUUUUUUUUU m
bUUUUUUUUUUUUUUUUUUUUUUUUUUUUUUUU n
b00000000000000000000000000000000 o
b10010100100000100000000000001000 p
b000000 q
1r
0s
1t
Uu
bUUUUU v
bUUUUU w
bUUUUU x
b00000000000000000000000000000000 y
b00000000000000000000000000000000 z
bUUUUUUUUUUUUUUUUUUUUUUUUUUUUUUUU {
b00000000000000000000000000000000 |
1}
1!"
1""
0#"
bUUUUUUUUUUUUUUUUUUUUUUUUUUUUUUUU $"
b00000000000000000000000000000000 %"
1&"
1'"
0("
bUUUUUUUUUUUUUUUUUUUUUUUUUUUUUUUU )"
b00000000000000000000000000000000 *"
1+"
1,"
0-"
bUUUUUUUUUUUUUUUUUUUUUUUUUUUUUUUU ."
b00000000000000000000000000000000 /"
10"
11"
02"
bUUUUUUUUUUUUUUUUUUUUUUUUUUUUUUUU 3"
b00000000000000000000000000000000 4"
15"
16"
07"
bUUUUUUUUUUUUUUUUUUUUUUUUUUUUUUUU 8"
b00000000000000000000000000000000 9"
1:"
1;"
0<"
bUUUUUUUUUUUUUUUUUUUUUUUUUUUUUUUU ="
b00000000000000000000000000000000 >"
1?"
1@"
0A"
bUUUUUUUUUUUUUUUUUUUUUUUUUUUUUUUU B"
b00000000000000000000000000000000 C"
1D"
1E"
0F"
bUUUUUUUUUUUUUUUUUUUUUUUUUUUUUUUU G"
b00000000000000000000000000000000 H"
1I"
1J"
0K"
bUUUUUUUUUUUUUUUUUUUUUUUUUUUUUUUU L"
b00000000000000000000000000000000 M"
1N"
1O"
0P"
bUUUUUUUUUUUUUUUUUUUUUUUUUUUUUUUU Q"
b00000000000000000000000000000000 R"
1S"
1T"
0U"
bUUUUUUUUUUUUUUUUUUUUUUUUUUUUUUUU V"
b00000000000000000000000000000000 W"
1X"
1Y"
0Z"
bUUUUUUUUUUUUUUUUUUUUUUUUUUUUUUUU ["
b00000000000000000000000000000000 \"
1]"
1^"
0_"
bUUUUUUUUUUUUUUUUUUUUUUUUUUUUUUUU `"
b00000000000000000000000000000000 a"
1b"
1c"
0d"
bUUUUUUUUUUUUUUUUUUUUUUUUUUUUUUUU e"
b00000000000000000000000000000000 f"
1g"
1h"
0i"
bUUUUUUUUUUUUUUUUUUUUUUUUUUUUUUUU j"
b00000000000000000000000000000000 k"
1l"
1m"
0n"
bUUUUUUUUUUUUUUUUUUUUUUUUUUUUUUUU o"
b00000000000000000000000000000000 p"
1q"
1r"
0s"
bUUUUUUUUUUUUUUUUUUUUUUUUUUUUUUUU t"
b00000000000000000000000000000000 u"
1v"
1w"
0x"
bUUUUUUUUUUUUUUUUUUUUUUUUUUUUUUUU y"
b00000000000000000000000000000000 z"
1{"
1|"
0}"
bUUUUUUUUUUUUUUUUUUUUUUUUUUUUUUUU !#
b00000000000000000000000000000000 "#
1##
1$#
0%#
bUUUUUUUUUUUUUUUUUUUUUUUUUUUUUUUU &#
b00000000000000000000000000000000 '#
1(#
1)#
0*#
bUUUUUUUUUUUUUUUUUUUUUUUUUUUUUUUU +#
b00000000000000000000000000000000 ,#
1-#
1.#
0/#
bUUUUUUUUUUUUUUUUUUUUUUUUUUUUUUUU 0#
b00000000000000000000000000000000 1#
12#
13#
04#
bUUUUUUUUUUUUUUUUUUUUUUUUUUUUUUUU 5#
b00000000000000000000000000000000 6#
17#
18#
09#
bUUUUUUUUUUUUUUUUUUUUUUUUUUUUUUUU :#
b00000000000000000000000000000000 ;#
1<#
1=#
0>#
bUUUUUUUUUUUUUUUUUUUUUUUUUUUUUUUU ?#
b00000000000000000000000000000000 @#
1A#
1B#
0C#
bUUUUUUUUUUUUUUUUUUUUUUUUUUUUUUUU D#
b00000000000000000000000000000000 E#
1F#
1G#
0H#
bUUUUUUUUUUUUUUUUUUUUUUUUUUUUUUUU I#
b00000000000000000000000000000000 J#
1K#
1L#
0M#
bUUUUUUUUUUUUUUUUUUUUUUUUUUUUUUUU N#
b00000000000000000000000000000000 O#
1P#
1Q#
0R#
bUUUUUUUUUUUUUUUUUUUUUUUUUUUUUUUU S#
b00000000000000000000000000000000 T#
1U#
1V#
0W#
bUUUUUUUUUUUUUUUUUUUUUUUUUUUUUUUU X#
b00000000000000000000000000000000 Y#
1Z#
1[#
0\#
bUUUUUUUUUUUUUUUUUUUUUUUUUUUUUUUU ]#
b00000000000000000000000000000000 ^#
1_#
1`#
0a#
bUUUUUUUUUUUUUUUUUUUUUUUUUUUUUUUU b#
b00000000000000000000000000000000 c#
bUUUUUU d#
0e#
0f#
0g#
0h#
0i#
0j#
0k#
b00 l#
bUUUUUUUUUUUUUUUUUUUUUUUUUUUUUUUU m#
b10 n#
bUUUUUUUUUUUUUUUUUUUUUUUUUUUUUU00 o#
bUUUUUUUUUUUUUUUUUUUUUUUUUUUUUU00 p#
bUUUUUUUUUUUUUUUUUUUUUUUUUUUUUUUU q#
bUUUUUUUUUUUUUUUUUUUUUUUUUUUUUU00 r#
bXXXXXXXXXXXXXXXXXXXXXXXXXXXXXXXX s#
Ut#
bUUUUUUUUUUUUUUUUUUUUUUUUUUUUUUUU u#
bUUUUUUUUUUUUUUUUUUUUUUUUUUUUUUUU v#
bUUUUUUUUUUUUUUUUUUUUUUUUUUUUUUUU w#
bXXX x#
bUUUUUUUUUUUUUUUUUUUUUUUUUUUUUUUU y#
bUUUUUUUUUUUUUUUUUUUUUUUUUUUUUUUU z#
bXXXXXXXXXXXXXXXXXXXXXXXXXXXXXXXX {#
0|#
bXXXXXXXXXXXXXXXXXXXXXXXXXXXXXXXX }#
U!$
bUUUUU "$
bUUUUU #$
bUUUUU $$
bUU %$
bUUUUUU &$
bXXX '$
0($
U)$
U*$
bUUUUUUUUUUUUUUUUUUUUUUUUUUUUUUUU +$
bUUUUUUUUUUUUUUUUUUUUUUUUUUUUUUUU ,$
bZZZZZZZZZZZZZZZZZZZZZZZZZZZZZZZZ -$
bUUUUUUUUUUUUUUUUUUUUUUUUUUUUUU .$
U/$
bUUUUUUUUUUUUUUUUUUUUUUUUUUUUUUUU 0$
bUUUUUUUUUUUUUUUUUUUUUUUUUUUUUUUU 1$
bUUUUUUUUUUUUUUUUUUUUUUUUUUUUUUUU 2$
#200000000
1!
1#
b00000000000000000000000000000100 '
b00000000000000000000000000000000 )
b00000000000000000000000000000000 *
b000000 +
b00000 -
b00000 .
b00000 /
b0000000000000000 0
b00000000000000000000000000000000 1
14
16
b10 ;
b00000000000000000000000000000000 <
b00000000000000000000000000000000 =
b00000000000000000000000000000000 >
b00000000000000000000000000000000 ?
b00000000000000000000000000000000 @
b00000000000000000000000000000000 A
b00000000000000000000000000000000 B
b00000000000000000000000000000000 C
b00000 D
b00000 E
b00000 F
b000000 G
0H
0I
0J
0K
0L
0M
0N
1O
b00 P
b010 Q
0R
0S
0T
0U
0V
0W
0X
b00000000000000000000000000000000 Y
b00000000000000000000000000000000 Z
b00000000000000000000000000000000 [
b00000 ]
0^
0_
b00000000000000000000000000000000 `
b00000000000000000000000000000000 a
b00000000000000000000000000000000 b
b00000 c
1d
b00000000000000000000000000000100 f
0k
b00000000000000000000000000000000 m
b00000000000000000000000000000100 n
1s
0u
b00000 v
b00000 w
b00000 x
b00000000000000000000000000000000 {
0}
0!"
b00000000000000000000000000000000 $"
0&"
b00000000000000000000000000000000 )"
0+"
b00000000000000000000000000000000 ."
00"
b00000000000000000000000000000000 3"
05"
b00000000000000000000000000000000 8"
0:"
b00000000000000000000000000000000 ="
0?"
b00000000000000000000000000000000 B"
0D"
b00000000000000000000000000000000 G"
0I"
b00000000000000000000000000000000 L"
0N"
b00000000000000000000000000000000 Q"
0S"
b00000000000000000000000000000000 V"
0X"
b00000000000000000000000000000000 ["
0]"
b00000000000000000000000000000000 `"
0b"
b00000000000000000000000000000000 e"
0g"
b00000000000000000000000000000000 j"
0l"
b00000000000000000000000000000000 o"
0q"
b00000000000000000000000000000000 t"
0v"
b00000000000000000000000000000000 y"
0{"
b00000000000000000000000000000000 !#
0##
b00000000000000000000000000000000 &#
0(#
b00000000000000000000000000000000 +#
0-#
b00000000000000000000000000000000 0#
02#
b00000000000000000000000000000000 5#
07#
b00000000000000000000000000000000 :#
0<#
b00000000000000000000000000000000 ?#
0A#
b00000000000000000000000000000000 D#
0F#
b00000000000000000000000000000000 I#
0K#
b00000000000000000000000000000000 N#
0P#
b00000000000000000000000000000000 S#
0U#
b00000000000000000000000000000000 X#
0Z#
b00000000000000000000000000000000 ]#
0_#
b00000000000000000000000000000000 b#
b000000 d#
1e#
1h#
b10 l#
b00000000000000000000000000000000 m#
b00000000000000000000000000000000 o#
b00000000000000000000000000000000 p#
b00000000000000000000000000000000 q#
b00000000000000000000000000000000 r#
b00000000000000000000000000000000 s#
0t#
b00000000000000000000000000000000 u#
b00000000000000000000000000000000 v#
b00000000000000000000000000000000 w#
b010 x#
b00000000000000000000000000000000 y#
b00000000000000000000000000000000 z#
b00000000000000000000000000000000 {#
1|#
b00000000000000000000000000000000 }#
0!$
b00000 "$
b00000 #$
b00000 $$
b00 %$
b000000 &$
b010 '$
1($
0)$
0*$
b00000000000000000000000000000000 +$
b00000000000000000000000000000000 ,$
b000000000000000000000000000000 .$
0/$
b00000000000000000000000000000000 0$
b00000000000000000000000000000000 1$
b00000000000000000000000000000000 2$
#250000000
0"
0$
0e
0t
0""
0'"
0,"
01"
06"
0;"
0@"
0E"
0J"
0O"
0T"
0Y"
0^"
0c"
0h"
0m"
0r"
0w"
0|"
0$#
0)#
0.#
03#
08#
0=#
0B#
0G#
0L#
0Q#
0V#
0[#
0`#
#400000000
0!
0#
0d
0s
1}
1!"
1&"
1+"
10"
15"
1:"
1?"
1D"
1I"
1N"
1S"
1X"
1]"
1b"
1g"
1l"
1q"
1v"
1{"
1##
1(#
1-#
12#
17#
1<#
1A#
1F#
1K#
1P#
1U#
1Z#
1_#
0($
#600000000
1!
1#
b10010100000000110000000000001000 %
b00000000000000000000000000000100 &
b00000000000000000000000000001000 '
b00000000000000000000000000001000 (
b10010100100000100000000000001000 )
b00000000000000000000000000000100 *
b100101 +
b00100 -
b00010 .
b0000000000001000 0
b00000000000000000000000000001000 1
06
17
18
1:
b00 ;
bXXXXXXXXXXXXXXXXXXXXXXXXXXXXXXXX C
1H
1J
0O
b10 P
bXXX Q
1X
bZZZZZZZZZZZZZZZZZZZZZZZZZZZZZZZZ `
1d
b00000000000000000000000000001000 f
b00000000000000000000000000000100 g
b00000000000000000000000000000100 h
b00000000000000000000000000001000 j
b00000000000000000000000000001000 l
b00000000000000000000000000001000 n
b00000000000000000000000000000100 o
b10010100000000110000000000001000 p
b000001 q
1s
b00100 v
b00010 w
0}
0!"
0&"
0+"
00"
05"
0:"
0?"
0D"
0I"
0N"
0S"
0X"
0]"
0b"
0g"
0l"
0q"
0v"
0{"
0##
0(#
0-#
02#
07#
0<#
0A#
0F#
0K#
0P#
0U#
0Z#
0_#
b100101 d#
0e#
1f#
1g#
1i#
b00 l#
bXXX x#
bXXXXXXXXXXXXXXXXXXXXXXXXXXXXXXXX {#
0|#
bXXXXXXXXXXXXXXXXXXXXXXXXXXXXXXXX }#
1!$
b10 %$
bXXX '$
1($
bZZZZZZZZZZZZZZZZZZZZZZZZZZZZZZZZ 1$
#800000000
0!
0#
0d
0s
1}
1!"
1&"
1+"
10"
15"
1:"
1?"
1D"
1I"
1N"
1S"
1X"
1]"
1b"
1g"
1l"
1q"
1v"
1{"
1##
1(#
1-#
12#
17#
1<#
1A#
1F#
1K#
1P#
1U#
1Z#
1_#
0($
#1000000000
1!
1#
b10010100000001000000000000010100 %
b00000000000000000000000000001000 &
b00000000000000000000000000001100 '
b00000000000000000000000000001100 (
b10010100000000110000000000001000 )
b00000000000000000000000000001000 *
b00000 -
b00011 .
b00000000000000000000000000000100 <
b00000000000000000000000000001000 =
b00000000000000000000000000100000 @
b00000000000000000000000000100100 A
b00000000000000000000000000001000 B
b00000000000000000000000000001000 C
b00010 D
b00010 F
b001000 G
0J
1K
1L
1N
b00 P
b010 Q
1S
0X
bXXXXXXXXXXXXXXXXXXXXXXXXXXXXXXXX Z
1d
b00000000000000000000000000001100 f
b00000000000000000000000000001000 g
b00000000000000000000000000001000 h
b00000000000000000000000000001100 j
b00000000000000000000000000001100 l
b00000000000000000000000000001100 n
b00000000000000000000000000001000 o
b10010100000001000000000000010100 p
b000010 q
1s
b00000 v
b00011 w
0}
0!"
0&"
0+"
00"
05"
0:"
0?"
0D"
0I"
0N"
0S"
0X"
0]"
0b"
0g"
0l"
0q"
0v"
0{"
0##
0(#
0-#
02#
07#
0<#
0A#
0F#
0K#
0P#
0U#
0Z#
0_#
b00000000000000000000000000001000 m#
b00000000000000000000000000100000 o#
b00000000000000000000000000100000 p#
b00000000000000000000000000000100 q#
b00000000000000000000000000100000 r#
b00000000000000000000000000100100 s#
1t#
b00000000000000000000000000001000 v#
b00000000000000000000000000001000 w#
b010 x#
b00000000000000000000000000001000 z#
b00000000000000000000000000001000 {#
b00000000000000000000000000001000 }#
0!$
b00010 "$
b00010 $$
b00 %$
b001000 &$
b010 '$
1($
bXXXXXXXXXXXXXXXXXXXXXXXXXXXXXXXX +$
bXXXXXXXXXXXXXXXXXXXXXXXXXXXXXX .$
#1200000000
0!
0#
0d
0s
1}
1!"
1&"
1+"
10"
15"
1:"
1?"
1D"
1I"
1N"
1S"
1X"
1]"
1b"
1g"
1l"
1q"
1v"
1{"
1##
1(#
1-#
12#
17#
1<#
1A#
1F#
1K#
1P#
1U#
1Z#
1_#
0($
